Eggcelent
…
# eggs %>% 
#   ggplot() + 
#   aes(x = n_hens_c, y = n_eggs_c, shape = prod_type, color = prod_process) + 
#   geom_point()

eggs

# A tibble: 220 × 9
   observed_month prod_type     prod_process   n_hens     n_eggs source         
   <date>         <chr>         <chr>           <dbl>      <dbl> <chr>          
 1 2016-07-31     hatching eggs all          57975000 1147000000 ChicEggs-09-23…
 2 2016-08-31     hatching eggs all          57595000 1142700000 ChicEggs-10-21…
 3 2016-09-30     hatching eggs all          57161000 1093300000 ChicEggs-11-22…
 4 2016-10-31     hatching eggs all          56857000 1126700000 ChicEggs-12-23…
 5 2016-11-30     hatching eggs all          57116000 1096600000 ChicEggs-01-24…
 6 2016-12-31     hatching eggs all          57750000 1132900000 ChicEggs-02-28…
 7 2017-01-31     hatching eggs all          57991000 1123400000 ChicEggs-03-21…
 8 2017-02-28     hatching eggs all          58286000 1014500000 ChicEggs-04-21…
 9 2017-03-31     hatching eggs all          58735000 1128500000 ChicEggs-05-22…
10 2017-04-30     hatching eggs all          59072000 1097200000 ChicEggs-06-23…
# ℹ 210 more rows
# ℹ 3 more variables: average_per_chicken <dbl>, n_eggs_c <dbl>, n_hens_c <dbl>
…
