7 Comparing Two Groups – Statistics for Data Science
…
Discuss statistical and practical significance.

7.9 The Questions

7.9.1 Set 1

Do economics majors watch more or less TV than computer science majors?

GSS |> 
  select(major1) |> 
  group_by(major1) |>
  tally()

# A tibble: 74 × 2
   major1                       n
   <fct>                    <int>
 1 accounting/bookkeeping      29
 2 agriculture/horticulture     5
 3 anthropolgy                  1
 4 architecture                 3
 5 art                         10
 6 biology                     26
 7 business administration    138
 8 chemistry                    4
 9 communications/speech       18
10 comm. disorders              2
# ℹ 64 more rows
…
          information technology fashion counseling DK/UNCODED IAP No answer
  yes                          2       0          2          0   0         0
  no                           5       0          3          0   0         0
  refused                      0       0          0          0   0         0
  DK                           0       0          0          0   0         0
  IAP                          0       0          0          0   0         0
  NA                           0       0          0          0   0         0

GSS |> 
  filter(owngun %in% c('yes', 'no'), !is.na(major1)) |>
  group_by(owngun, major1) |> 
  tally()

# A tibble: 114 × 3
# Groups:   owngun [2]
   owngun major1                       n
   <fct>  <fct>                    <int>
 1 yes    accounting/bookkeeping       5
 2 yes    agriculture/horticulture     2
 3 yes    art                          1
 4 yes    biology                      2
 5 yes    business administration     33
 6 yes    communications/speech        6
 7 yes    comm. disorders              2
 8 yes    computer science             2
 9 yes    dentistry                    1
10 yes    education                   25
# ℹ 104 more rows
…
