8 OLS Regression Estimates – Statistics for Data Science
…
In order to access these residuals, we can “augment” the dataframe that we used in the model, using the broom::augment function call.

model_aux_augmented <- augment(model_aux)

Because the \(Y\) variable wasn’t included in the regression for model_aux we have to bring of over from the main dataset, which is a little bit… um, hacky. Forgive these sins.

model_aux_augmented$y <- d$y
model_aux_augmented

# A tibble: 100 × 10
      x1    x2    x3 .fitted .resid   .hat .sigma   .cooksd .std.resid     y
   <dbl> <dbl> <dbl>   <dbl>  <dbl>  <dbl>  <dbl>     <dbl>      <dbl> <dbl>
 1 9.33   9.86 9.13     5.72  3.61  0.0477   2.89 0.0271        1.27   53.6 
 2 6.51   2.68 7.18     5.30  1.21  0.0262   2.92 0.00159       0.422  30.7 
 3 4.14   3.37 0.414    5.32 -1.18  0.0383   2.92 0.00228      -0.414   9.34
 4 7.64   7.16 7.38     5.56  2.08  0.0184   2.91 0.00328       0.723  42.0 
 5 0.893  4.58 5.74     5.41 -4.51  0.0116   2.88 0.00958      -1.56   24.2 
 6 9.88   4.78 9.27     5.43  4.45  0.0315   2.88 0.0263        1.56   43.5 
 7 0.642  7.78 0.606    5.58 -4.94  0.0430   2.87 0.0452       -1.74   16.7 
 8 5.20   8.02 9.15     5.62 -0.418 0.0342   2.92 0.000253     -0.146  44.7 
 9 5.54   3.99 0.645    5.36  0.178 0.0340   2.92 0.0000454     0.0622 13.1 
10 0.804  3.84 5.97     5.37 -4.56  0.0145   2.88 0.0123       -1.58   25.0 
# ℹ 90 more rows
…
