8.6 The Regression Anatomy Formula | Statistics for Data Science
…
In order to access these residuals, we can “augment” the dataframe that we used in the model, using the broom::augment function call.

Code

model_aux_augmented <- augment(model_aux)

Because the \(Y\) variable wasn’t included in the regression for model_aux we have to bring of over from the main dataset, which is a little bit… um, hacky. Forgive these sins.

Code

model_aux_augmented$y <- d$y
model_aux_augmented

## # A tibble: 100 × 10
##       x1    x2    x3 .fitted .resid   .hat .sigma  .cooksd .std.resid     y
##    <dbl> <dbl> <dbl>   <dbl>  <dbl>  <dbl>  <dbl>    <dbl>      <dbl> <dbl>
##  1 2.57  2.02   5.86    5.05 -2.47  0.0208   2.76 0.00582      -0.906  22.2
##  2 3.53  0.630  6.12    5.23 -1.70  0.0344   2.77 0.00466      -0.626  19.3
##  3 1.73  1.91   3.13    4.92 -3.19  0.0286   2.75 0.0135       -1.17   10.9
##  4 5.98  1.63   7.66    5.19  0.788 0.0312   2.77 0.000906      0.290  30.0
##  5 2.94  3.96   8.18    4.93 -2.00  0.0246   2.77 0.00451      -0.733  32.8
##  6 4.53  8.94   3.17    4.06  0.471 0.0383   2.77 0.000402      0.174  25.9
##  7 0.811 8.74   2.40    4.04 -3.23  0.0401   2.75 0.0199       -1.20   20.1
##  8 0.517 8.67   4.13    4.14 -3.63  0.0326   2.75 0.0200       -1.34   29.2
##  9 4.34  1.34   8.09    5.25 -0.908 0.0369   2.77 0.00143      -0.335  28.8
## 10 8.17  7.79   6.39    4.37  3.80  0.0276   2.75 0.0184        1.40   39.7
## # ℹ 90 more rows
…
